Title: Stockverkoop

----

Menutitle: KORTING tot -70% op geselecteerde items.

----

Coverimage: 

----

Startdatum: 2020-06-13

----

Einddatum: 2021-01-01

----

Text: 

###We maken plaats voor nieuwe modellen.
###KORTING tot  -70% op geselecteerde items.